ant -f /home/kory/Projects/mathpiperide/src/library_apps/mathpiper4/nbbuild.xml -Dnb.internal.action.name=run run
init:
deps-jar:
Updating property file: /home/kory/Projects/mathpiperide/src/library_apps/mathpiper4/build/built-jar.properties
Created dir: /home/kory/Projects/mathpiperide/src/library_apps/mathpiper4/build/empty
Created dir: /home/kory/Projects/mathpiperide/src/library_apps/mathpiper4/build/generated-sources/ap-source-output
Compiling 4 source files to /home/kory/Projects/mathpiperide/src/library_apps/mathpiper4/build
warning: [options] bootstrap class path not set in conjunction with -source 7
Note: /home/kory/Projects/mathpiperide/src/library_apps/mathpiper4/src/org/mathpiper/ui/gui/gwt/WebConsole.java uses or overrides a deprecated API.
Note: Recompile with -Xlint:deprecation for details.
1 warning
Copying 544 files to /home/kory/Projects/mathpiperide/src/library_apps/mathpiper4/build
compile:
run:
Initializing CAS... done. 
Wed Dec 19 12:46:29 EST 2018.
MathPiper version: .262.
Running all tests except for documentation examples tests.
Beginning of tests:

================================================================
Testing !? in file <org/mathpiper/builtin/procedures/core/Not_.java>: 


================================================================
Testing &? in file <org/mathpiper/builtin/procedures/core/And_.java>: 


================================================================
Testing ->? in file <org/mathpiper/builtin/procedures/core/Implies_.java>: 


================================================================
Testing ==? in file <org/mathpiper/builtin/procedures/core/Equivales_.java>: 


================================================================
Testing Atom? in file <org/mathpiper/builtin/procedures/core/Atom_.java>: 


================================================================
Testing Concat in file <org/mathpiper/builtin/procedures/core/Concatenate.java>: 


================================================================
Testing ConcatStrings in file <org/mathpiper/builtin/procedures/core/ConcatenateStrings.java>: 


================================================================
Testing Constant in file <org/mathpiper/builtin/procedures/core/Constant.java>: 


================================================================
Testing Equal? in file <org/mathpiper/builtin/procedures/core/Equal_.java>: 


================================================================
Testing ExceptionCatch in file <org/mathpiper/builtin/procedures/core/ExceptionCatch.java>: 


================================================================
Testing FlatCopy in file <org/mathpiper/builtin/procedures/core/FlatCopy.java>: 


================================================================
Testing FromBase in file <org/mathpiper/builtin/procedures/core/FromBase.java>: 


================================================================
Testing GreaterThan? in file <org/mathpiper/builtin/procedures/core/GreaterThan_.java>: 


================================================================
Testing Integer? in file <org/mathpiper/builtin/procedures/core/Integer_.java>: 


================================================================
Testing LessThan? in file <org/mathpiper/builtin/procedures/core/LessThan_.java>: 


================================================================
Testing LibraryLock in file <org/mathpiper/builtin/procedures/core/LibraryLock.java>: 

The library is locked.


================================================================
Testing List? in file <org/mathpiper/builtin/procedures/core/List_.java>: 


================================================================
Testing ListToProcedure in file <org/mathpiper/builtin/procedures/core/ListToProcedure.java>: 


================================================================
Testing Local in file <org/mathpiper/builtin/procedures/core/Local.java>: 


================================================================
Testing Number? in file <org/mathpiper/builtin/procedures/core/Number_.java>: 


================================================================
Testing ParseLatex in file <org/mathpiper/builtin/procedures/optional/ParseLatex.java>: 

Known failure: Verify(ParseLatex("2^3^4^5*6"), '(2^3^4^5*6)) 
******************
File: org/mathpiper/builtin/procedures/optional/ParseLatex.java:USER, Line: 3 

ParseLatex("2^3^4^5*6")
 evaluates to 
2^(3^4)^5*6
 which differs from 
2^3^4^5*6
******************


================================================================
Testing ParseLisp in file <org/mathpiper/builtin/procedures/core/ParseLisp.java>: 


================================================================
Testing ParseMathPiper in file <org/mathpiper/builtin/procedures/core/ParseMathPiper.java>: 


================================================================
Testing Procedure? in file <org/mathpiper/builtin/procedures/core/Procedure_.java>: 


================================================================
Testing ProcedureToList in file <org/mathpiper/builtin/procedures/core/ProcedureToList.java>: 


================================================================
Testing ToAtom in file <org/mathpiper/builtin/procedures/core/ToAtom.java>: 


================================================================
Testing ToBase in file <org/mathpiper/builtin/procedures/core/ToBase.java>: 


================================================================
Testing ToString in file <org/mathpiper/builtin/procedures/core/ToString.java>: 


================================================================
Testing UnparseMathPiper in file <org/mathpiper/builtin/procedures/core/UnparseMathPiper.java>: 


================================================================
Testing Variable? in file <org/mathpiper/builtin/procedures/core/Variable_.java>: 


================================================================
Testing XmlExplodeTag in file <org/mathpiper/builtin/procedures/core/XmlExplodeTag.java>: 


================================================================
Testing |? in file <org/mathpiper/builtin/procedures/core/Or_.java>: 


================================================================
Testing !=? in file <org/mathpiper/scripts4/stubs/comparison_operators.mpws>: 


================================================================
Testing % in file <org/mathpiper/scripts4/a_initialization/standard/percent_operator.mpws>: 


================================================================
Testing * in file <org/mathpiper/scripts4/a_initialization/stdarith/asterisk_operator.mpws>: 


================================================================
Testing +:= in file <org/mathpiper/scripts4/a_initialization/standard/plus_colon_equals.mpws>: 


================================================================
Testing -:= in file <org/mathpiper/scripts4/a_initialization/standard/minus_colon_equals.mpws>: 


================================================================
Testing / in file <org/mathpiper/scripts4/a_initialization/stdarith/slash_operator.mpws>: 


================================================================
Testing /: in file <org/mathpiper/scripts4/localrules/slash_colon_operator.mpws>: 


================================================================
Testing <=? in file <org/mathpiper/scripts4/stubs/comparison_operators.mpws>: 


================================================================
Testing <? in file <org/mathpiper/scripts4/stubs/comparison_operators.mpws>: 


================================================================
Testing =? in file <org/mathpiper/scripts4/stubs/comparison_operators.mpws>: 


================================================================
Testing >=? in file <org/mathpiper/scripts4/stubs/comparison_operators.mpws>: 


================================================================
Testing >? in file <org/mathpiper/scripts4/stubs/comparison_operators.mpws>: 


================================================================
Testing ^ in file <org/mathpiper/scripts4/a_initialization/stdarith/caret_operator.mpws>: 


================================================================
Testing Abs in file <org/mathpiper/scripts4/stubs/Abs.mpws>: 


================================================================
Testing Add in file <org/mathpiper/scripts4/sums/Add.mpws>: 


================================================================
Testing Apply in file <org/mathpiper/scripts4/procedural/Apply.mpws>: 

--ThreadingListables


================================================================
Testing ArcCos in file <org/mathpiper/scripts4/stdfuncs/trigsymbolic/ArcCos.mpws>: 


================================================================
Testing ArcSin in file <org/mathpiper/scripts4/stdfuncs/trigsymbolic/ArcSin.mpws>: 


================================================================
Testing ArcTan in file <org/mathpiper/scripts4/stdfuncs/trigsymbolic/ArcTan.mpws>: 


================================================================
Testing arithmetic in file <org/mathpiper/scripts4/a_initialization/stdarith/arithmetic_test.mpws>: 

Test suite for Test arithmetic : 

Test suite for Basic calculations : 

Test suite for Testing math stuff : 

--IntegerOperations

--PowerN

--Rounding

--Bases


================================================================
Testing BaseVector in file <org/mathpiper/scripts4/linalg/BaseVector.mpws>: 


================================================================
Testing BinomialCoefficient in file <org/mathpiper/scripts4/combinatorics/Combinations.mpws>: 


================================================================
Testing BooleanList in file <org/mathpiper/scripts4/proposed/logic/BooleanList.mpws>: 


================================================================
Testing BooleanLists in file <org/mathpiper/scripts4/proposed/logic/BooleanLists.mpws>: 


================================================================
Testing BubbleSortIndexed in file <org/mathpiper/scripts4/sorting/BubbleSortIndexed.mpws>: 


================================================================
Testing CoFactor in file <org/mathpiper/scripts4/linalg/CoFactor.mpws>: 


================================================================
Testing Complex in file <org/mathpiper/scripts4/complex/Complex.mpws>: 

******************
File: org/mathpiper/scripts4/complex/Complex.mpws:USER, Line: 15 

0^I
 evaluates to 
Exp(Complex(0, -Infinity))
 which differs from 
Undefined
******************


================================================================
Testing Conjugate in file <org/mathpiper/scripts4/complex/Conjugate.mpws>: 


================================================================
Testing Constant? in file <org/mathpiper/scripts4/predicates/Constant_.mpws>: 


================================================================
Testing Copy in file <org/mathpiper/scripts4/proposed/treeutilities/Copy.mpws>: 


================================================================
Testing Cos in file <org/mathpiper/scripts4/stdfuncs/trigsymbolic/Cos.mpws>: 


================================================================
Testing CrossProduct in file <org/mathpiper/scripts4/linalg/CrossProduct.mpws>: 


================================================================
Testing CUnparsable? in file <org/mathpiper/scripts4/unparsers/CUnparsable_.mpws>: 


================================================================
Testing DateToNumber in file <org/mathpiper/scripts4/optional/strings/DateToNumber.mpws>: 

WARNING: An illegal reflective access operation has occurred

================================================================
Testing Diagonal in file <org/mathpiper/scripts4/linalg/Diagonal.mpws>: 
WARNING: Illegal reflective access by org.mathpiper.builtin.procedures.optional.javareflection.Invoke (file:/home/kory/Projects/mathpiperide/src/library_apps/mathpiper4/build/) to method java.lang.Object.finalize()


================================================================
Testing Diagonal? in file <org/mathpiper/scripts4/predicates/Diagonal_.mpws>: 

WARNING: Please consider reporting this to the maintainers of org.mathpiper.builtin.procedures.optional.javareflection.Invoke
WARNING: Use --illegal-access=warn to enable warnings of further illegal reflective access operations
WARNING: All illegal access operations will be denied in a future release

================================================================
Testing DiagonalMatrix in file <org/mathpiper/scripts4/linalg/DiagonalMatrix.mpws>: 


================================================================
Testing Dimensions in file <org/mathpiper/scripts4/linalg/Dimensions.mpws>: 


================================================================
Testing DotProduct in file <org/mathpiper/scripts4/linalg/DotProduct.mpws>: 


================================================================
Testing error_reporting in file <org/mathpiper/scripts4/io/Error_.mpws>: 


================================================================
Testing ExpNum in file <org/mathpiper/scripts4/stdfuncs/numerical/ExpNum.mpws>: 


================================================================
Testing Factorial in file <org/mathpiper/scripts4/sums/Factorial.mpws>: 


================================================================
Testing FloatIsInt? in file <org/mathpiper/scripts4/predicates/FloatIsInt_.mpws>: 

******************
File: org/mathpiper/scripts4/predicates/FloatIsInt_.mpws:USER, Line: 3 

FloatIsInt?(3.1415926535e9)
 evaluates to 
True
 which differs from 
False
******************


================================================================
Testing Floor in file <org/mathpiper/scripts4/stubs/Floor.mpws>: 


================================================================
Testing Gamma in file <org/mathpiper/scripts4/specfunc/Gamma.mpws>: 


================================================================
Testing GaussianInteger? in file <org/mathpiper/scripts4/numbers/gaussianintegers/GaussianInteger_.mpws>: 


================================================================
Testing Gcd in file <org/mathpiper/scripts4/stubs/Gcd.mpws>: 

Known failure: Gcd(10,3.3) !=? 3.3 &? Gcd(10,3.3) !=? 1 


================================================================
Testing HasExpression? in file <org/mathpiper/scripts4/predicates/HasExpression_.mpws>: 


================================================================
Testing HasProcedure? in file <org/mathpiper/scripts4/predicates/HasProcedure_.mpws>: 


================================================================
Testing HasProcedureArithmetic? in file <org/mathpiper/scripts4/predicates/HasProcedureArithmetic_.mpws>: 


================================================================
Testing HeapSortIndexed in file <org/mathpiper/scripts4/sorting/HeapSortIndexed.mpws>: 


================================================================
Testing HighlightPattern in file <org/mathpiper/scripts4/proposed/treeutilities/HighlightPattern.mpws>: 


================================================================
Testing IdentityMatrix in file <org/mathpiper/scripts4/linalg/IdentityMatrix.mpws>: 


================================================================
Testing Im in file <org/mathpiper/scripts4/complex/Im.mpws>: 


================================================================
Testing InnerProduct in file <org/mathpiper/scripts4/linalg/InnerProduct.mpws>: 


================================================================
Testing InternalLnNum in file <org/mathpiper/scripts4/stdfuncs/numerical/InternalLnNum.mpws>: 


================================================================
Testing IntLog in file <org/mathpiper/scripts4/numbers/IntLog.mpws>: 


================================================================
Testing Lcm in file <org/mathpiper/scripts4/stubs/Lcm.mpws>: 


================================================================
Testing LeviCivita in file <org/mathpiper/scripts4/linalg/LeviCivita.mpws>: 


================================================================
Testing lists in file <org/mathpiper/scripts4/lists/lists_tests.mpws>: 

Test suite for VarList : 

--BubbleSort

--HeapSort

--ListOperations

--Length

--Nth

--Concat

--AssociationDelete

---- Arithmetic Operations


================================================================
Testing LogicTest in file <org/mathpiper/scripts4/testers/LogicTest.mpws>: 


================================================================
Testing LowerTriangular in file <org/mathpiper/scripts4/predicates/LowerTriangular_.mpws>: 


================================================================
Testing Macro in file <org/mathpiper/scripts4/define/Macro.mpws>: 

The library is unlocked.
The library is locked.


================================================================
Testing MapSingle in file <org/mathpiper/scripts4/lists/MapSingle.mpws>: 


================================================================
Testing Mark in file <org/mathpiper/scripts4/proposed/treeutilities/Mark.mpws>: 


================================================================
Testing MarkAll in file <org/mathpiper/scripts4/proposed/treeutilities/MarkAll.mpws>: 


================================================================
Testing MathExpTaylor0 in file <org/mathpiper/scripts4/base/MathExpTaylor0.mpws>: 


================================================================
Testing Matrix? in file <org/mathpiper/scripts4/predicates/matrix.mpws>: 

------ Matrix?(Integer?)


================================================================
Testing Minimum in file <org/mathpiper/scripts4/sums/Minimum.mpws>: 


================================================================
Testing Minor in file <org/mathpiper/scripts4/linalg/Minor.mpws>: 


================================================================
Testing Modulo in file <org/mathpiper/scripts4/stubs/Modulo.mpws>: 


================================================================
Testing NewtonNum in file <org/mathpiper/scripts4/stdfuncs/nummethods/NewtonNum.mpws>: 


================================================================
Testing NextPrime in file <org/mathpiper/scripts4/numbers/NextPrime.mpws>: 


================================================================
Testing NodePathDistance in file <org/mathpiper/scripts4/proposed/treeutilities/NodePathDistance.mpws>: 


================================================================
Testing NthRoot in file <org/mathpiper/scripts4/numbers/NthRoot.mpws>: 


================================================================
Testing NumberToDate in file <org/mathpiper/scripts4/optional/strings/NumberToDate.mpws>: 


================================================================
Testing NumericProcedure in file <org/mathpiper/scripts4/procedural/NumericProcedure.mpws>: 


================================================================
Testing OccurrencesCount in file <org/mathpiper/scripts4/proposed/treeutilities/OccurrencesCount.mpws>: 


================================================================
Testing OptionsToAssociationList in file <org/mathpiper/scripts4/proposed/miscellaneous/OptionsToAssociationList.mpws>: 


================================================================
Testing OuterProduct in file <org/mathpiper/scripts4/linalg/OuterProduct.mpws>: 


================================================================
Testing Permutations in file <org/mathpiper/scripts4/proposed/statistics/Permutations.mpws>: 


================================================================
Testing Plot2D in file <org/mathpiper/scripts4/plots/_2d/plot2d.mpws>: 


================================================================
Testing Plot3DS in file <org/mathpiper/scripts4/plots/_3d/plot3ds.mpws>: 


================================================================
Testing PositionGet in file <org/mathpiper/scripts4/proposed/treeutilities/PositionGet.mpws>: 


================================================================
Testing PositionsLeaves in file <org/mathpiper/scripts4/proposed/treeutilities/PositionsLeaves.mpws>: 


================================================================
Testing PositionsPattern in file <org/mathpiper/scripts4/proposed/treeutilities/PositionsPattern.mpws>: 


================================================================
Testing PositionsPredicate in file <org/mathpiper/scripts4/proposed/treeutilities/PositionsPredicate.mpws>: 


================================================================
Testing PositionStringToList in file <org/mathpiper/scripts4/proposed/treeutilities/PositionStringToList.mpws>: 


================================================================
Testing PowerN in file <org/mathpiper/scripts4/base/PowerN.mpws>: 


================================================================
Testing Prime? in file <org/mathpiper/scripts4/numbers/Prime_.mpws>: 


================================================================
Testing Procedure in file <org/mathpiper/scripts4/define/Procedure.mpws>: 

--Procedure definitions


================================================================
Testing Product in file <org/mathpiper/scripts4/sums/Product.mpws>: 


================================================================
Testing RabinMiller in file <org/mathpiper/scripts4/rabinmiller/RabinMiller.mpws>: 


================================================================
Testing RegexGet in file <org/mathpiper/scripts4/optional/strings/RegexGet.mpws>: 


================================================================
Testing Reverse in file <org/mathpiper/scripts4/lists/Reverse.mpws>: 


================================================================
Testing Scalar? in file <org/mathpiper/scripts4/predicates/matrix.mpws>: 


================================================================
Testing Sin in file <org/mathpiper/scripts4/stdfuncs/trigsymbolic/Sin.mpws>: 


================================================================
Testing SmallPrime? in file <org/mathpiper/scripts4/numbers/SmallPrime_.mpws>: 


================================================================
Testing SolveMatrix in file <org/mathpiper/scripts4/linalg/SolveMatrix.mpws>: 


================================================================
Testing Sort in file <org/mathpiper/scripts4/sorting/Sort.mpws>: 


================================================================
Testing Sqrt in file <org/mathpiper/scripts4/stubs/Sqrt.mpws>: 


================================================================
Testing SquareMatrix? in file <org/mathpiper/scripts4/predicates/matrix.mpws>: 


================================================================
Testing StringEndsWith? in file <org/mathpiper/scripts4/optional/strings/StringEndsWith_.mpws>: 


================================================================
Testing StringLowerCase in file <org/mathpiper/scripts4/optional/strings/StringLowerCase.mpws>: 


================================================================
Testing StringMatches in file <org/mathpiper/scripts4/optional/strings/StringMatches_.mpws>: 


================================================================
Testing StringReplace in file <org/mathpiper/scripts4/optional/strings/StringReplace.mpws>: 


================================================================
Testing StringReplaceAll in file <org/mathpiper/scripts4/optional/strings/StringReplaceAll.mpws>: 


================================================================
Testing StringSplit in file <org/mathpiper/scripts4/optional/strings/StringSplit.mpws>: 


================================================================
Testing StringStartsWith? in file <org/mathpiper/scripts4/optional/strings/StringStartsWith_.mpws>: 


================================================================
Testing StringSubstring in file <org/mathpiper/scripts4/optional/strings/StringSubstring.mpws>: 


================================================================
Testing StringTrim in file <org/mathpiper/scripts4/optional/strings/StringTrim.mpws>: 


================================================================
Testing StringUpperCase in file <org/mathpiper/scripts4/optional/strings/StringUpperCase.mpws>: 


================================================================
Testing Subexpressions in file <org/mathpiper/scripts4/proposed/logic/Subexpressions.mpws>: 


================================================================
Testing Subfactorial in file <org/mathpiper/scripts4/sums/Subfactorial.mpws>: 


================================================================
Testing SubstitutePosition in file <org/mathpiper/scripts4/proposed/treeutilities/SubstitutePosition.mpws>: 


================================================================
Testing SubtreesPattern in file <org/mathpiper/scripts4/proposed/treeutilities/SubtreesPattern.mpws>: 


================================================================
Testing SymbolPathDistanceTotal in file <org/mathpiper/scripts4/proposed/treeutilities/SymbolPathDistanceTotal.mpws>: 


================================================================
Testing Tan in file <org/mathpiper/scripts4/stdfuncs/trigsymbolic/Tan.mpws>: 


================================================================
Testing TreeDepth in file <org/mathpiper/scripts4/proposed/treeutilities/TreeDepth.mpws>: 


================================================================
Testing TruthTable in file <org/mathpiper/scripts4/proposed/logic/TruthTable.mpws>: 


================================================================
Testing UnparseC in file <org/mathpiper/scripts4/unparsers/UnparseC.mpws>: 


================================================================
Testing UnparseLatex in file <org/mathpiper/scripts4/unparsers/unparselatex.mpws>: 


================================================================
Testing UpperTriangular in file <org/mathpiper/scripts4/predicates/UpperTriangular_.mpws>: 


================================================================
Testing Vector? in file <org/mathpiper/scripts4/predicates/matrix.mpws>: 

---- Vector?(Number?)


================================================================
Testing WeightedMean in file <org/mathpiper/scripts4/proposed/statistics/WeightedMean.mpws>: 


================================================================
Testing Where in file <org/mathpiper/scripts4/localrules/Where.mpws>: 



***** Tests complete *****

Global variables: []
Elapsed Time: 0 min 4 sec
Maximum Evaluation Depth Reached: 182
BUILD SUCCESSFUL (total time: 5 seconds)

